COVID_finals
…
Now the minimum number of cases in any row is one.

Check to ensure the Max in each of the cases and deaths columns is not a typographical error.

global %>% filter(cases > 80000000)

## # A tibble: 47 x 5
##    Province_State Country_Region date          cases deaths
##    <chr>          <chr>          <date>        <dbl>  <dbl>
##  1 <NA>           US             2022-03-28 80001286 978260
##  2 <NA>           US             2022-03-29 80025464 979243
##  3 <NA>           US             2022-03-30 80064646 980411
##  4 <NA>           US             2022-03-31 80110284 980927
##  5 <NA>           US             2022-04-01 80142499 981756
##  6 <NA>           US             2022-04-02 80154308 981912
##  7 <NA>           US             2022-04-03 80159063 981970
##  8 <NA>           US             2022-04-04 80187971 982557
##  9 <NA>           US             2022-04-05 80213572 983070
## 10 <NA>           US             2022-04-06 80254519 984195
## # ... with 37 more rows

Check the deaths column.

global %>% filter(deaths > 990000)

## # A tibble: 24 x 5
##    Province_State Country_Region date          cases deaths
##    <chr>          <chr>          <date>        <dbl>  <dbl>
##  1 <NA>           US             2022-04-20 80804471 990330
##  2 <NA>           US             2022-04-21 80864015 990713
##  3 <NA>           US             2022-04-22 80954071 991269
##  4 <NA>           US             2022-04-23 80973785 991320
##  5 <NA>           US             2022-04-24 80987251 991349
##  6 <NA>           US             2022-04-25 81057431 991634
##  7 <NA>           US             2022-04-26 81102716 991958
##  8 <NA>           US             2022-04-27 81192697 992759
##  9 <NA>           US             2022-04-28 81267145 993126
## 10 <NA>           US             2022-04-29 81328234 993553
## # ... with 14 more rows
…
Transform data to a new table which summarizes the deaths, cases, cases_per_thou, and deaths_per_thou in each state. arrange the rows in ascending number of deaths in each state.

us_state_totals <- us_by_state %>%
  group_by(Province_State) %>%
  summarize(deaths = max(deaths), cases = max(cases),
            population = max(Population),
            cases_per_thou = 1000 * cases / population,
            deaths_per_thou = 1000 * deaths / population) %>%
  filter(cases > 0, population > 0) %>%
  arrange(deaths)

us_state_totals

## # A tibble: 56 x 6
##    Province_State        deaths  cases population cases_per_thou deaths_per_thou
##    <chr>                  <dbl>  <dbl>      <dbl>          <dbl>           <dbl>
##  1 American Samoa            30   5999      55641           108.           0.539
##  2 Northern Mariana Isl~     34  11305      55144           205.           0.617
##  3 Virgin Islands           113  18037     107268           168.           1.05 
##  4 Guam                     361  48496     164229           295.           2.20 
##  5 Vermont                  648 128471     623989           206.           1.04 
##  6 Alaska                  1268 256089     740995           346.           1.71 
##  7 District of Columbia    1340 144675     705749           205.           1.90 
##  8 Hawaii                  1434 258422    1415872           183.           1.01 
##  9 Wyoming                 1817 157031     578759           271.           3.14 
## 10 North Dakota            2272 242462     762062           318.           2.98 
## # ... with 46 more rows
…
us_state_totals

## # A tibble: 56 x 6
##    Province_State        deaths  cases population cases_per_thou deaths_per_thou
##    <chr>                  <dbl>  <dbl>      <dbl>          <dbl>           <dbl>
##  1 American Samoa            30   5999      55641           108.           0.539
##  2 Northern Mariana Isl~     34  11305      55144           205.           0.617
##  3 Virgin Islands           113  18037     107268           168.           1.05 
##  4 Guam                     361  48496     164229           295.           2.20 
##  5 Vermont                  648 128471     623989           206.           1.04 
##  6 Alaska                  1268 256089     740995           346.           1.71 
##  7 District of Columbia    1340 144675     705749           205.           1.90 
##  8 Hawaii                  1434 258422    1415872           183.           1.01 
##  9 Wyoming                 1817 157031     578759           271.           3.14 
## 10 North Dakota            2272 242462     762062           318.           2.98 
## # ... with 46 more rows
…
Add this vector as a column to us_state_totals.

# arrange the tibble in alphaberical order (bases on Province_State) to match the order in the pop_density vector
us_state_totals <- us_state_totals %>%
  arrange(Province_State)

# add the new column of pop_density to the tibble
us_state_totals$Pop_Density <- pop_density

# print out the new tibble and check that the correct values in the Pop_Density column have been associated with each state
us_state_totals %>%
  select(Province_State, Pop_Density, everything())

## # A tibble: 56 x 7
##    Province_State       Pop_Density deaths   cases population cases_per_thou
##    <chr>                      <dbl>  <dbl>   <dbl>      <dbl>          <dbl>
##  1 Alabama                     38.3  19628 1304710    4903185           266.
##  2 Alaska                       0.5   1268  256089     740995           346.
##  3 American Samoa             251       30    5999      55641           108.
##  4 Arizona                     24.3  30230 2030925    7278717           279.
##  5 Arkansas                    22.3  11415  838251    3017804           278.
##  6 California                  98    90782 9349673   39512223           237.
##  7 Colorado                    21.5  12513 1407405    5758736           244.
##  8 Connecticut                288    10914  779460    3565287           219.
##  9 Delaware                   196     2931  267265     973764           274.
## 10 District of Columbia      4361     1340  144675     705749           205.
## # ... with 46 more rows, and 1 more variable: deaths_per_thou <dbl>
…
